2651220269
3396329692
2381986128
2369645878
1786158070
2375692389
1885888749
4012411689
2905563966
1607544908
556600579
2021658996
1197487312
512387985
2613877202
2903493731
1951357080
2495031236
3148979849
2284653053
2784553602
2774029340
1365312321
3708169522
2188462685
1314369939
1837045071
2661001829
180806032
1118404277
2596123230
3764813411
1731786841
2438372575
2534587170
1225970019
2940920127
3547132181
2196505798
2134657793
1833597895
2835064454
2490089372
2410208054
2227005153
3318094992
3255543044
2928157751
2605334812
3425645633
1499621365
4016611812
2209164068
2304322999
1934143809
2348187408
1445557581
995933727
2089383554
2311575063
-49186289
-569150086
106832326
646943806
818421782
132926711
730307144
-1245022379
-1434509377
-1247622405
-1880281343
-1007243097
-137120516
139894902
-667527007
-258291809
-88952927
949140373
-289370605
-769350634
-391405109
-227350464
1708677491
1641723693
2026669270
1714145210
-1973338869
888027252
-490826138
200427923
-415301119
272417209
1262177868
-486374647
-1477325537
-645625208
255334442
-1529828610
-197864868
90696399
505996372
-172291320
364260075
-1430318234
1743658086
862564440
859729452
824102921
209055581
-1200252713
-917997009
-989516953
-571369946
1301349366
-259966832
1059569587
-1098079922
926170690
-544469449
1287097737
1504430269938953016
677775196561822557
599499122866293728
117184583626231480
1328746518032524910
1981775083407556605
295541692254385530
1761689629137745790
1106587148371739520
690489813787843944
2908139004153128730
774891869804954528
215204597979402756
1054027727120340588
296612173718756688
185562114305853600
1577655110622445348
887688358070613450
1031704725739990228
288460536519878463
16245203352213330
1264814143378571102
378846269002061580
4062529373505725219
2465881455700251404
383130845806004307
1370551103429046084
3984922547599173050
809082001745479516
2005886594859652560
1240663321574139560
3666331026228789792
1323693644795629152
205593066215643420
1963276186007538822
1815262683145180444
665723859004911856
569268002892722931
466572725692490560
1369596426438356754
2799385313241054006
182419513126120236
278779157160427855
229786609780062581
1395893321835128784
2606359708416987529
3157307359943417980
766327956635998740
1198093067023952050
727002317218481472
50594719079998080
321896625758925518
483370671725917076
139297575394432920
1841609789642083824
714420922426577200
2314229667614960625
353525646552683378
2547889058988718880
496234417735239274
4780394817081990461910169420393997598543335839221599106832600329692641080384279633602024486996633285420788796160487132876305350247204086076283538879586267998875394647352843033659342212842860058930151480248827096889477300224
54930787920810960545184277716483459477529308920004001487708996275858096048952372649448389904653231493407802455635050767074448213388724665689098274397711179262926185449194230081922935814652349238366314556638764187104839333619056238730720497893376
85476981054110185117536393128976569192910071036779543577515987888056086269321492399480090311009295680371899082877077031973301114060169882090090006215239011888040562554862707036695199853009
755475636730451953950281927428163827983276561940547759290374322599218192212983143626110321117505682462481
35327219618270565384186363245028663878445945300563041160736320307990604771844716978884462912689559935866951737540426540939527541700494996168743634750897389568
976215137296
8435396241267174635432331293647292117978103658125064076087273807572215657701300800571310918092691730737623916598969611522026523169658321884023251340530934964236297832715283871819
140721733078407216868794764766434089071285495312858215573619773977963345297123557299738862212263757621968244262070116334842316552788983411253003934340237761021776001595808377881945338561
131232352539100663739828482371369283915879918259861083255818683483398534583841410494642332196235656738281250000000000000000000000000000000000000000000000000000000
1773923766191766114592572004070624060993093615286883044304700169868198140807479296000000000000000000000000000000000000000000
11614468838272060706635741631473750667253451358073194634474203758843251228820473359003596767661438228100732418714527293561712745891515890185657558567248297922695464871372625066547751406531261598255084050943891666939423886479992993681
965486581988193
13713149536045766968608101439466488309754982977606441962486125640409487288900997819470220500739222013104036719757745161694882705634445581563715951950164119438316712618822179861563143189941
135393237703353943528128490047012864
116697871300552201595671943318274090049709578642637923936408552815177760808304673229202377591907242224121911531757139347127013884961410724126180026771297673165441
19047518497912564814377228637785565108584035271185189435128765642692525868843039940341699402468623608878783222127991070305978763011271635946675634176
891136
67937289638464
6034444764301926099398767225037966746150282982201748550057984
8341078759411030958480570362264421405555648475638539409039757004922625070382870142402239167668106733070144338455171600442707659187322981891569610677844818822979805090212551157440023781340043506876416
206261943473046759112428878025988813169001255027726612869249421146667568514847787633394712092703366712702076023232174360941068021486957513730999330724753914842468649450427709640003546167273021854912177199318478739222528889533291055718971998208
334296538331669579431936
14921754472861167063328719663477114697957140704591022251243751380854855553056714606425978863955245275165236863803502387345601683324542009434812082452060771753256036347520155979962517184483329184760349265966321081943396531675567227744250033073228132729819620660507627406724185256088988899344384
2821109907456
1219435566423151076548141413583353949024735400985476158820086485744138532939933267117676832720292705953771412471077491079481422621195695361
7719812292449068765162710546381925699877061241042561116178564578691108672849221423
880802961981405724692958972134260287579350419590804150941971495167518853112914649986813558714217183041
1849525650653645408362585453187986038939257769328072133199080834310193740907013209011411554833213223580241000000000000000000000000000000000000000000000000000000
4621901748299935290051555327436784417777963241841202362484189484976366355382595326212977143066885196517919439224411078463137969
256795105313304029495545531844663869751736224494929161349074130855702560768
14210854715202003717422485351562500000000000000000000000000000000000000000000000000000000000000000000000000000000000000000000
91842373020521718541517451306621946403741349212147117585734787885101564437839243958923051517573250040169081654036310989679776660278644551004019913317533808461922393918504042135399004411116721227135551954456417119181741950531892450423259026427485410690900247564490397491701332574208
454926503025845922310883691961523650179956566189370722809577370146504951269675769472005627521978601354240870970339949297960712670696595846443721495146466599294252975595123486924442505554677542509335052198125562790001
7719812292449068765162710546381925699877061241042561116178564578691108672849221423
204617431360795924987059699837936764505154315644225613302104609715030613057586988215769524913451410375033404488913421648816387163033723463640827395226464789594189481439197234137763899276255403598036670815301208385061720662182419503509166764719221483
122204710961704196556896881668120959726434582556340459358761995313159922123005111170272135928394640589394560224725630942557539661971255347014263465943947017010395844482089848561096559286273507175370327052589007445046229041
80928761218047285187020260836324422438129897394328071353597903950053376
286407537112865428559871412055302803698322713901005647692285371127848009941085927279216344451807169254021160677996541755220451399867449531291580403945252577287653328216227287803859812644589048535470150344769536
107747246740454705038895236780204580684251739707025217064930723399157976433774057007649916403854110864317500948012872479353789869267316366042724738599536018311703932810453604207360487155448670970625314416833680069776821839645786216266287738108076155185699462890625
4798327868418770472175954368083731439899981557622183830000226957
233985721407750952803152119925714640690344325984536965828932216351633622861254358088439327914952679883229985419851123556934740137721695279348108546902092414976
9057475407707541742972112969394677089383879568433086464
44774560000
1183768682616191959377597437620164493312
3552713678800500929355621337890625000000000000000000000000000000000000000000000000
309136
191685267574168235824568501047505183403922779050234017337792746464892483524770469820203047109598870581491067529893136091324291426398765212463841071512403967282555925788464809981664428892509691256460090270429075478178610617771901026486684070321034810787355184824795689130502299582464
205361277385368933495680559956622792908467791164335755684289056803855806213650159817451862237143926229027497773351520560099
1521
78402752
413590306276513837435704346034981426782906055450439453125000000000000000000000000000000000000000000000000000000000000000000000000000000000000000000000000000000000000000000000000000000000000000000000000000000000000000000
65217277532595295697699909661710016911840319357764487549296239662960339899860331373690144747802937347993489
18674687380760908479645073107784408044768497172061334733703750301081559655240436605299636384879303081217298568159
580802649319158381699691115989210000098558921491166973092895996672246255911886692047119140625
60030537878000264461173336785415365430905568847551768204118825954394944168599413953419980492633984511278102177318069430069025243750816028373141681813414566655058077752762777100773760299678207837613079320110780406168760590974997150321
945885172741191597654271443657396066952266596257686614990234375
2346851213518627027789452809011885246034810311623066548059431111194395482783744
1487815647197611695910312681741273570332356717154798949898498305086387315423300999654757561928633305897036801
155060414384587871688679567737883916932083667040626890957355499267578125
54361846697263307560529495055267343940077014163990039113495978834700158362117849904436807
