14818827480894
473948381
406042986
3122509527758322
37121704
80633211
9844988126539104
44221415995698769
181628409989088
63253838310515125
877981641870025
126204528009067186
190187316371506162
160185543911466304
63952159
88303601
296494465
23412309490092032
403330971
17507381
1
444801498
724893058037056
-382496593
327786215
-80820746
551459346
261005530
239555515
82450969
237353819
-68979202
10688815827971517
211786643819603241
-2512886
1
-165275492
-23453000
8116735449964854
432296431
254938226011211697619456
229578698
34141170
35195822
1
658841797
297549223
-6308974
803625375834369
377939310784338
864212135
2383807664298916825242112
274420528
-92991063
64644689
-4986412
47158868
-84515894
-274526355
944749424
1
1
57273500340933488618866613212176
29186518646223464
133670188
491028019
604660702
985626796
-425560355
209085587
-365888621
-437727856
161405075753553005
427147041
1308168135
14973057437766604370271181
-514597782
102880672
133869656949864676
471025006
66050136157313756
1
48208963
12850842558047480
571708454
856318958
7420969122632209
-599962125
1104940591
1
1077423287236530
-290354720
8227290828504696
704400724
4436612018859966
557207137316934
1294063044
949107614
933989563
32969836914081753
13946818170416746
-363421475
854539166
250111026
183844243
137697010
-476946790
109109306731707975
66410862846469515
788556750
45013381314916468719171468235564081
163873064
28061930
-47140750
780436045
235083829
26138479
-60150417
-94429686
280348236
25922953288796356
730626212
45811537289617401
-330635781
1555816827527946
178745677
121790736
516449097
826788829
105888362
290141215
108431846
24993336465516672
519252885524332
-169435637
10144713033286785412883831485521
471647512
579243108
-559521310
749585539
15889000525845662228109747383201121
33695800722608984296128
627566591
5943208633419760
-39809970
86313352
10163021034751172
108581127
404264015
17167380554971201
216613725
1
-72289411
1
28486852224002894992020797893002256
183748947
259788945
27587410
19916396077506384
1068901766
395951277
-264094416
1531300272850229
166961282
694417419
-229493126
-353134784
14013708815323728
362260738
36484903380407524
268975595
56987341
10417917928764553
13683622723510467
226326231
496660122
1
43151961
20818414398883277
36824575588826980350999586298032656
-14430494
270902578582251892
4486111
-229888581
36130746
187194325980136376
2251259467658721
7038759161545155
21400593952409100
34352833052642538
72063664
-232015851
518691702103434234533829203
68611972
310728433
443742208
110638606
758081807
41748850374759996
12549310622227200
1014264127170144397607471640915921
6443493965476129
1
1
641672857
8257450
1
162003923
63460764247690612
217248652
297270234
-270808257
466680142
841872353
19682889
336721335934544103459223
59171169
-245659964
1759270361509828948285952
51066330432775
158396830294091340
619256385
529994910
32754048212925953
162747180829648321
436053135
25539211452702342012421793005146321
447349505
-254963976
1594388114
355364906
