124707208407596072
67940006084455556
33363237997420
352848837001441
1
34998123712675182
-31401792
353540960
233566259
8072005431127728
1523492471495956
33773123398635840
58939379184895650
3608730694293685589406987
52676475921537733719935387827846641
2293877901420309
45632678290400933
146218421
521430406
-139476308
26590365033837060
4565946263229796
423009576
686889903
84055141730233278
372444067416100
902229935
33260485727885976
-251077477
6391755886850764853655661076680321
68401630686685009
16276972
412030185
275565037
895254454511690045456384
316037871
70882332392244321
18668637
211282741088440576
17854205106979605902636125
-442629254
975306794
20435412839563337
38722704911218448875000000
326779391
973248033372268
726479985
168487941
523571049
180253291
681665482
294736540
242144780
76118554
2860488738038318049811000
-77907957
-217979251
121608128
229215042383190084
462429794
66550130219387980
601357323
-20005313
157115310190382535
234968006
-254390070
6900161610190496
-360719881
50558451723962457
549645342
8911560612284628992
1260534573939682
316278346
103754037308670350
-319932206
643606743
596311537
108207307
78488240
1
467857666
883391626120047
35199038255356989
35417359623826889907984169762816
128746108841618005710517
1
-394669180
1024126008
312451857
36722513
319236709
492592489
170528265306119352
336019694
174333405014100
-240872973
18625268770845474
69063677675640560
12729506643648718
6550006335443860645561832250625
-10741909
696834271
-318482214
19705047768329900106262850751065041
475836594
76498118
200183859
19596590125194
343717058
-281129222
2408597327143825
841947445
935740167
114029014742313894
4735582674424900
84099120009577790057197117013753856
83379895097951487301558619749440001
560478037
-347670978
28150361
26938357
57641571
303443977
173703434949392832
3634036238347449944037618422963601
-61870064
-117447466
145759137954790801
1
1142091452
1407767721578841
87518748
55942238244012134479483191882241
290005884169539136
-511354324
33564537272826540
84233620840453076
496261124
89865261
17064059790519852
41447597
-169917843
10438207823308903253239616
40292740214884556
45297394
267080126085038784
1
1
789338147
21058688024196678
462430887
51053521801669696
37542401135536440
24884507467852291915324321
54915335079896774
104330473
11675475162776104810195456
650974922
1
143802897
358849306352783
10043349882685335
1025336957
965374630
1221252131
-420301362
312538644
3014312
192096150
1
-301061133
113424119475761658882917312
541276901
533716766
262773669
270461450
1
-445036790
237373744976825786
54296981037515098
3832631547645684603392000
-113021683
320641484
657652392
12815868
197429113353601600
-31373501
307603890744296087648869141007449521
-2022992
-765574625
72380984470201103
1
401326233
5107138
66023198
1
252952849118187474
2715695034729844884680624846250256
104768051508261971
3302618262864921
-497703131
6641302677779344
68261908
299421714
12265117745597327209859762119696
4281210276628105105397000
670422409
-354521269
522346191
7699845000470997
-293864186
50396289583577766
106230211
451617345415415615
2024651690383270
110518034
3191905426959865
2245933542725770
491024440288912321
998673633
1108561304
1012074468
1
182006146219124835
997578485
59735565220411609
4371472502756502
724191892
202362960
8937848477331825
20934211
